2021-08-08 18:51:39.272071	2021-08-08 18:51:46.429028	7.074117	200
2021-08-08 18:51:39.275909	2021-08-08 18:51:46.514336	7.159366	200
2021-08-08 18:51:39.255942	2021-08-08 18:51:46.525690	7.164737	200
2021-08-08 18:51:39.255908	2021-08-08 18:51:46.666645	7.306523	200
2021-08-08 18:51:39.271829	2021-08-08 18:51:49.253613	9.898905	200
2021-08-08 18:51:39.289728	2021-08-08 18:51:49.281138	9.917842	200
2021-08-08 18:51:39.267145	2021-08-08 18:51:49.351523	9.994601	200
2021-08-08 18:51:39.261297	2021-08-08 18:51:49.488396	10.126118	200
2021-08-08 18:51:39.270193	2021-08-08 18:51:51.029773	11.655342	200
2021-08-08 18:51:39.301774	2021-08-08 18:51:51.048490	11.683284	200
2021-08-08 18:51:51.068929	2021-08-08 18:51:53.845017	2.767526	200
2021-08-08 18:51:51.054418	2021-08-08 18:51:53.898147	2.832116	200
2021-08-08 18:51:51.063008	2021-08-08 18:51:53.917849	2.842895	200
2021-08-08 18:51:51.064324	2021-08-08 18:51:53.981229	2.903958	200
2021-08-08 18:51:51.065778	2021-08-08 18:51:56.702745	5.625778	200
2021-08-08 18:51:51.059822	2021-08-08 18:51:56.796475	5.723194	200
2021-08-08 18:51:51.058693	2021-08-08 18:51:56.816900	5.74666	200
2021-08-08 18:51:51.056160	2021-08-08 18:51:56.864358	5.796968	200
2021-08-08 18:51:51.052403	2021-08-08 18:51:58.545749	7.48112	200
2021-08-08 18:51:51.061766	2021-08-08 18:51:58.684751	7.610851	200
2021-08-08 18:51:58.694865	2021-08-08 18:52:02.752211	4.045163	200
2021-08-08 18:51:58.691185	2021-08-08 18:52:02.902416	4.198995	200
2021-08-08 18:51:58.688278	2021-08-08 18:52:02.980896	4.280806	200
2021-08-08 18:51:58.692706	2021-08-08 18:52:03.000555	4.294961	200
2021-08-08 18:51:58.701765	2021-08-08 18:52:08.241811	9.528914	200
2021-08-08 18:51:58.697319	2021-08-08 18:52:08.468117	9.758143	200
2021-08-08 18:51:58.698342	2021-08-08 18:52:08.516386	9.806628	200
2021-08-08 18:51:58.700499	2021-08-08 18:52:08.647764	9.934791	200
2021-08-08 18:51:58.705692	2021-08-08 18:52:10.426632	11.709701	200
2021-08-08 18:51:58.708081	2021-08-08 18:52:10.540985	11.82472	200
2021-08-08 18:52:10.560894	2021-08-08 18:52:14.018434	3.430169	200
2021-08-08 18:52:10.549268	2021-08-08 18:52:14.052205	3.481422	200
2021-08-08 18:52:10.556545	2021-08-08 18:52:14.100369	3.51934	200
2021-08-08 18:52:10.565239	2021-08-08 18:52:14.226608	3.638072	200
2021-08-08 18:52:10.584478	2021-08-08 18:52:16.068516	5.467847	200
2021-08-08 18:52:10.573012	2021-08-08 18:52:16.111010	5.516812	200
2021-08-08 18:52:10.589357	2021-08-08 18:52:16.144769	5.539355	200
2021-08-08 18:52:10.592823	2021-08-08 18:52:16.235390	5.629156	200
2021-08-08 18:52:10.581147	2021-08-08 18:52:17.152595	6.551494	200
2021-08-08 18:52:10.596972	2021-08-08 18:52:17.185868	6.570497	200
2021-08-08 18:52:17.187715	2021-08-08 18:52:19.111045	1.915014	200
2021-08-08 18:52:17.191677	2021-08-08 18:52:19.135169	1.936114	200
2021-08-08 18:52:17.187275	2021-08-08 18:52:19.138877	1.945257	200
2021-08-08 18:52:17.187437	2021-08-08 18:52:19.220560	2.026732	200
2021-08-08 18:52:17.189897	2021-08-08 18:52:20.909398	3.711308	200
2021-08-08 18:52:17.187837	2021-08-08 18:52:20.963472	3.766627	200
2021-08-08 18:52:17.192586	2021-08-08 18:52:21.009635	3.810717	200
2021-08-08 18:52:17.187387	2021-08-08 18:52:21.037585	3.840157	200
2021-08-08 18:52:17.193407	2021-08-08 18:52:22.000241	4.799498	200
2021-08-08 18:52:17.190192	2021-08-08 18:52:22.033659	4.835412	200
2021-08-08 18:52:22.036744	2021-08-08 18:52:23.838818	1.792648	200
2021-08-08 18:52:22.041103	2021-08-08 18:52:23.920058	1.866504	200
2021-08-08 18:52:22.042106	2021-08-08 18:52:23.970184	1.916637	200
2021-08-08 18:52:22.038724	2021-08-08 18:52:23.979850	1.93417	200
2021-08-08 18:52:22.035658	2021-08-08 18:52:25.638585	3.593398	200
2021-08-08 18:52:22.035200	2021-08-08 18:52:25.743234	3.699316	200
2021-08-08 18:52:22.035453	2021-08-08 18:52:25.759888	3.715544	200
2021-08-08 18:52:22.040560	2021-08-08 18:52:25.763326	3.713796	200
2021-08-08 18:52:22.046841	2021-08-08 18:52:26.701976	4.64587	200
2021-08-08 18:52:22.043289	2021-08-08 18:52:26.756290	4.702718	200
2021-08-08 18:52:26.757609	2021-08-08 18:52:28.815627	2.051486	200
2021-08-08 18:52:26.757802	2021-08-08 18:52:28.920773	2.156428	200
2021-08-08 18:52:26.758811	2021-08-08 18:52:28.930857	2.163225	200
2021-08-08 18:52:26.757963	2021-08-08 18:52:29.010075	2.244934	200
2021-08-08 18:52:26.761400	2021-08-08 18:52:30.817387	4.047776	200
2021-08-08 18:52:26.762085	2021-08-08 18:52:31.067453	4.296287	200
2021-08-08 18:52:26.760270	2021-08-08 18:52:31.116237	4.346603	200
2021-08-08 18:52:26.764875	2021-08-08 18:52:31.128218	4.355004	200
2021-08-08 18:52:26.766348	2021-08-08 18:52:32.416597	5.642098	200
2021-08-08 18:52:26.762905	2021-08-08 18:52:32.482459	5.710005	200
2021-08-08 18:52:32.492159	2021-08-08 18:52:34.801314	2.300877	200
2021-08-08 18:52:32.483861	2021-08-08 18:52:34.850450	2.355481	200
2021-08-08 18:52:32.484084	2021-08-08 18:52:34.860681	2.362297	200
2021-08-08 18:52:32.490794	2021-08-08 18:52:34.895072	2.395293	200
2021-08-08 18:52:32.488305	2021-08-08 18:52:36.764580	4.265359	200
2021-08-08 18:52:32.489252	2021-08-08 18:52:36.800340	4.300269	200
2021-08-08 18:52:32.483754	2021-08-08 18:52:36.874172	4.381093	200
2021-08-08 18:52:32.485442	2021-08-08 18:52:36.902202	4.407156	200
2021-08-08 18:52:32.495406	2021-08-08 18:52:38.625302	6.121826	200
2021-08-08 18:52:32.496253	2021-08-08 18:52:38.631282	6.125906	200
2021-08-08 18:52:38.632432	2021-08-08 18:52:40.518960	1.876347	200
2021-08-08 18:52:38.632561	2021-08-08 18:52:40.552576	1.910735	200
2021-08-08 18:52:38.633887	2021-08-08 18:52:40.610958	1.967501	200
2021-08-08 18:52:38.633325	2021-08-08 18:52:40.638331	1.996277	200
2021-08-08 18:52:38.635864	2021-08-08 18:52:42.269248	3.624284	200
2021-08-08 18:52:38.640785	2021-08-08 18:52:42.369773	3.722649	200
2021-08-08 18:52:38.636430	2021-08-08 18:52:42.371706	3.72657	200
2021-08-08 18:52:38.634330	2021-08-08 18:52:42.415213	3.771656	200
2021-08-08 18:52:38.639907	2021-08-08 18:52:43.415970	4.768868	200
2021-08-08 18:52:38.638531	2021-08-08 18:52:43.490629	4.843479	200
2021-08-08 18:52:43.497350	2021-08-08 18:52:45.340371	1.833406	200
2021-08-08 18:52:43.492414	2021-08-08 18:52:45.371731	1.872682	200
2021-08-08 18:52:43.500393	2021-08-08 18:52:45.380135	1.872277	200
2021-08-08 18:52:43.493574	2021-08-08 18:52:45.407890	1.906376	200
2021-08-08 18:52:43.499839	2021-08-08 18:52:47.101722	3.594822	200
2021-08-08 18:52:43.492753	2021-08-08 18:52:47.167740	3.668227	200
2021-08-08 18:52:43.492472	2021-08-08 18:52:47.169850	3.670234	200
2021-08-08 18:52:43.496547	2021-08-08 18:52:47.218345	3.713653	200
2021-08-08 18:52:43.495567	2021-08-08 18:52:48.162385	4.657261	200
2021-08-08 18:52:43.495248	2021-08-08 18:52:48.192534	4.688266	200
2021-08-08 18:52:48.194020	2021-08-08 18:52:50.031346	1.823023	200
2021-08-08 18:52:48.200189	2021-08-08 18:52:50.107799	1.901207	200
2021-08-08 18:52:48.196239	2021-08-08 18:52:50.118374	1.914687	200
2021-08-08 18:52:48.193918	2021-08-08 18:52:50.131207	1.931369	200
2021-08-08 18:52:48.194193	2021-08-08 18:52:51.833863	3.6315	200
2021-08-08 18:52:48.198704	2021-08-08 18:52:51.938491	3.732639	200
2021-08-08 18:52:48.196477	2021-08-08 18:52:51.951565	3.747151	200
2021-08-08 18:52:48.193849	2021-08-08 18:52:51.955219	3.754452	200
2021-08-08 18:52:48.197321	2021-08-08 18:52:52.937735	4.732155	200
2021-08-08 18:52:48.196371	2021-08-08 18:52:52.986850	4.783513	200
2021-08-08 18:52:52.990844	2021-08-08 18:52:54.818565	1.817861	200
2021-08-08 18:52:52.988091	2021-08-08 18:52:54.889283	1.892089	200
2021-08-08 18:52:52.989000	2021-08-08 18:52:54.902157	1.902787	200
2021-08-08 18:52:52.987999	2021-08-08 18:52:54.938892	1.943389	200
2021-08-08 18:52:52.988374	2021-08-08 18:52:56.536890	3.538861	200
2021-08-08 18:52:52.994069	2021-08-08 18:52:56.643285	3.641165	200
2021-08-08 18:52:52.993091	2021-08-08 18:52:56.697588	3.695148	200
2021-08-08 18:52:52.991332	2021-08-08 18:52:56.734064	3.73196	200
2021-08-08 18:52:52.998226	2021-08-08 18:52:57.585785	4.58042	200
2021-08-08 18:52:52.996373	2021-08-08 18:52:57.648566	4.643453	200
2021-08-08 18:52:57.650076	2021-08-08 18:52:59.495433	1.836858	200
2021-08-08 18:52:57.652587	2021-08-08 18:52:59.515913	1.855706	200
2021-08-08 18:52:57.650897	2021-08-08 18:52:59.559404	1.899453	200
2021-08-08 18:52:57.653025	2021-08-08 18:52:59.601227	1.940983	200
2021-08-08 18:52:57.650416	2021-08-08 18:53:01.486788	3.828896	200
2021-08-08 18:52:57.658548	2021-08-08 18:53:01.494991	3.829041	200
2021-08-08 18:52:57.655476	2021-08-08 18:53:01.513118	3.849348	200
2021-08-08 18:52:57.654541	2021-08-08 18:53:01.565909	3.902584	200
2021-08-08 18:52:57.656325	2021-08-08 18:53:02.526468	4.862406	200
2021-08-08 18:52:57.649924	2021-08-08 18:53:02.561992	4.904682	200
2021-08-08 18:53:02.564919	2021-08-08 18:53:04.445176	1.874365	200
2021-08-08 18:53:02.567091	2021-08-08 18:53:04.462066	1.888331	200
2021-08-08 18:53:02.570201	2021-08-08 18:53:04.526941	1.949754	200
2021-08-08 18:53:02.564381	2021-08-08 18:53:04.573201	2.00247	200
2021-08-08 18:53:02.569285	2021-08-08 18:53:06.224211	3.64807	200
2021-08-08 18:53:02.567762	2021-08-08 18:53:06.269390	3.693469	200
2021-08-08 18:53:02.566618	2021-08-08 18:53:06.362693	3.787393	200
2021-08-08 18:53:02.571781	2021-08-08 18:53:06.423832	3.846496	200
2021-08-08 18:53:02.572912	2021-08-08 18:53:07.341857	4.763554	200
2021-08-08 18:53:02.564494	2021-08-08 18:53:07.374957	4.802848	200
2021-08-08 18:53:07.378744	2021-08-08 18:53:09.227929	1.840023	200
2021-08-08 18:53:07.379516	2021-08-08 18:53:09.273821	1.885281	200
2021-08-08 18:53:07.381627	2021-08-08 18:53:09.291362	1.901458	200
2021-08-08 18:53:07.378571	2021-08-08 18:53:09.329550	1.940108	200
2021-08-08 18:53:07.376126	2021-08-08 18:53:11.129804	3.74794	200
2021-08-08 18:53:07.376172	2021-08-08 18:53:11.145432	3.761173	200
2021-08-08 18:53:07.378527	2021-08-08 18:53:11.154349	3.76736	200
2021-08-08 18:53:07.376280	2021-08-08 18:53:11.208845	3.824324	200
2021-08-08 18:53:07.380832	2021-08-08 18:53:12.171684	4.783222	200
2021-08-08 18:53:07.376317	2021-08-08 18:53:12.208433	4.824392	200
2021-08-08 18:53:12.212259	2021-08-08 18:53:14.089355	1.868758	200
2021-08-08 18:53:12.210886	2021-08-08 18:53:14.125750	1.908608	200
2021-08-08 18:53:12.210258	2021-08-08 18:53:14.132184	1.91457	200
2021-08-08 18:53:12.211205	2021-08-08 18:53:14.174048	1.953461	200
2021-08-08 18:53:12.214582	2021-08-08 18:53:15.907745	3.683806	200
2021-08-08 18:53:12.213431	2021-08-08 18:53:15.976387	3.752401	200
2021-08-08 18:53:12.221017	2021-08-08 18:53:16.018678	3.790069	200
2021-08-08 18:53:12.215391	2021-08-08 18:53:16.111516	3.885055	200
2021-08-08 18:53:12.217638	2021-08-08 18:53:16.965909	4.739408	200
2021-08-08 18:53:12.218946	2021-08-08 18:53:17.029444	4.801054	200
2021-08-08 18:53:17.032575	2021-08-08 18:53:18.851468	1.807259	200
2021-08-08 18:53:17.031707	2021-08-08 18:53:18.851941	1.81097	200
2021-08-08 18:53:17.034598	2021-08-08 18:53:18.871510	1.825682	200
2021-08-08 18:53:17.031848	2021-08-08 18:53:18.892388	1.851577	200
2021-08-08 18:53:17.035119	2021-08-08 18:53:20.752492	3.706625	200
2021-08-08 18:53:17.040178	2021-08-08 18:53:20.776228	3.726689	200
2021-08-08 18:53:17.033229	2021-08-08 18:53:20.841515	3.796609	200
2021-08-08 18:53:17.042529	2021-08-08 18:53:20.860233	3.811142	200
2021-08-08 18:53:17.043673	2021-08-08 18:53:21.827577	4.775269	200
2021-08-08 18:53:17.037460	2021-08-08 18:53:21.922014	4.874374	200
2021-08-08 18:53:21.923772	2021-08-08 18:53:23.752838	1.821034	200
2021-08-08 18:53:21.923619	2021-08-08 18:53:23.765618	1.832499	200
2021-08-08 18:53:21.923831	2021-08-08 18:53:23.776213	1.842323	200
2021-08-08 18:53:21.924625	2021-08-08 18:53:23.834757	1.902408	200
2021-08-08 18:53:21.926369	2021-08-08 18:53:25.495084	3.559973	200
2021-08-08 18:53:21.927271	2021-08-08 18:53:25.569514	3.633679	200
2021-08-08 18:53:21.930775	2021-08-08 18:53:25.597224	3.659367	200
2021-08-08 18:53:21.929397	2021-08-08 18:53:25.611476	3.674572	200
2021-08-08 18:53:21.927597	2021-08-08 18:53:26.589160	4.65334	200
2021-08-08 18:53:21.930225	2021-08-08 18:53:26.793468	4.855771	200
2021-08-08 18:53:26.802305	2021-08-08 18:53:28.733056	1.923722	200
2021-08-08 18:53:26.801856	2021-08-08 18:53:28.753699	1.944748	200
2021-08-08 18:53:26.801960	2021-08-08 18:53:28.787445	1.974739	200
2021-08-08 18:53:26.803385	2021-08-08 18:53:28.803325	1.990491	200
2021-08-08 18:53:26.802406	2021-08-08 18:53:30.456666	3.646746	200
2021-08-08 18:53:26.804590	2021-08-08 18:53:30.499564	3.685739	200
2021-08-08 18:53:26.805590	2021-08-08 18:53:30.583007	3.769011	200
2021-08-08 18:53:26.808226	2021-08-08 18:53:30.761638	3.946175	200
2021-08-08 18:53:26.806668	2021-08-08 18:53:31.605099	4.791132	200
2021-08-08 18:53:26.810357	2021-08-08 18:53:31.632417	4.814703	200
2021-08-08 18:53:31.633618	2021-08-08 18:53:33.464420	1.823132	200
2021-08-08 18:53:31.638828	2021-08-08 18:53:33.475262	1.828908	200
2021-08-08 18:53:31.633718	2021-08-08 18:53:33.483066	1.841946	200
2021-08-08 18:53:31.633836	2021-08-08 18:53:33.768456	2.128814	200
2021-08-08 18:53:31.637064	2021-08-08 18:53:35.230135	3.585344	200
2021-08-08 18:53:31.639487	2021-08-08 18:53:35.265059	3.618443	200
2021-08-08 18:53:31.633998	2021-08-08 18:53:35.366761	3.724359	200
2021-08-08 18:53:31.636151	2021-08-08 18:53:35.527528	3.883226	200
2021-08-08 18:53:31.636427	2021-08-08 18:53:36.420779	4.776528	200
2021-08-08 18:53:31.636104	2021-08-08 18:53:36.421357	4.778503	200
2021-08-08 18:53:36.422654	2021-08-08 18:53:38.210795	1.779942	200
2021-08-08 18:53:36.422782	2021-08-08 18:53:38.219440	1.788524	200
2021-08-08 18:53:36.423431	2021-08-08 18:53:38.259929	1.8287	200
2021-08-08 18:53:36.423383	2021-08-08 18:53:38.267881	1.835225	200
2021-08-08 18:53:36.426125	2021-08-08 18:53:39.992796	3.557485	200
2021-08-08 18:53:36.425441	2021-08-08 18:53:40.075484	3.640067	200
2021-08-08 18:53:36.432903	2021-08-08 18:53:40.118193	3.678913	200
2021-08-08 18:53:36.431305	2021-08-08 18:53:40.156597	3.717497	200
2021-08-08 18:53:36.427165	2021-08-08 18:53:41.109878	4.672612	200
2021-08-08 18:53:36.428990	2021-08-08 18:53:41.144145	4.706747	200
2021-08-08 18:53:41.145460	2021-08-08 18:53:42.905304	1.751659	200
2021-08-08 18:53:41.145464	2021-08-08 18:53:42.937262	1.783541	200
2021-08-08 18:53:41.145627	2021-08-08 18:53:42.976665	1.823053	200
2021-08-08 18:53:41.148354	2021-08-08 18:53:43.012342	1.85544	200
2021-08-08 18:53:41.149112	2021-08-08 18:53:44.710103	3.552614	200
2021-08-08 18:53:41.145782	2021-08-08 18:53:44.719929	3.562976	200
2021-08-08 18:53:41.151181	2021-08-08 18:53:44.832527	3.673037	200
2021-08-08 18:53:41.151947	2021-08-08 18:53:44.858707	3.698555	200
2021-08-08 18:53:41.154217	2021-08-08 18:53:45.825156	4.661733	200
2021-08-08 18:53:41.155410	2021-08-08 18:53:45.863699	4.700488	200
2021-08-08 18:53:45.865496	2021-08-08 18:53:47.720730	1.847379	200
2021-08-08 18:53:45.865202	2021-08-08 18:53:47.755399	1.88266	200
2021-08-08 18:53:45.870246	2021-08-08 18:53:47.779695	1.899995	200
2021-08-08 18:53:45.870609	2021-08-08 18:53:47.865032	1.98712	200
2021-08-08 18:53:45.869169	2021-08-08 18:53:49.619254	3.742904	200
2021-08-08 18:53:45.865067	2021-08-08 18:53:49.630061	3.759183	200
2021-08-08 18:53:45.867734	2021-08-08 18:53:49.665021	3.788379	200
2021-08-08 18:53:45.867653	2021-08-08 18:53:49.697564	3.81971	200
2021-08-08 18:53:45.865024	2021-08-08 18:53:50.676910	4.804681	200
2021-08-08 18:53:45.872694	2021-08-08 18:53:50.688793	4.809048	200
2021-08-08 18:53:50.690334	2021-08-08 18:53:52.524724	1.82752	200
2021-08-08 18:53:50.690158	2021-08-08 18:53:52.567541	1.870397	200
2021-08-08 18:53:50.690816	2021-08-08 18:53:52.593811	1.894946	200
2021-08-08 18:53:50.693079	2021-08-08 18:53:52.604000	1.902621	200
2021-08-08 18:53:50.692197	2021-08-08 18:53:54.331339	3.630456	200
2021-08-08 18:53:50.690054	2021-08-08 18:53:54.382605	3.684039	200
2021-08-08 18:53:50.696355	2021-08-08 18:53:54.417393	3.713952	200
2021-08-08 18:53:50.698857	2021-08-08 18:53:54.433461	3.72694	200
2021-08-08 18:53:50.695695	2021-08-08 18:53:55.428162	4.72472	200
2021-08-08 18:53:50.693661	2021-08-08 18:53:55.472129	4.768857	200
2021-08-08 18:53:55.476451	2021-08-08 18:53:57.352557	1.868706	200
2021-08-08 18:53:55.473711	2021-08-08 18:53:57.361424	1.881587	200
2021-08-08 18:53:55.473960	2021-08-08 18:53:57.461954	1.978695	200
2021-08-08 18:53:55.480821	2021-08-08 18:53:57.476674	1.989683	200
2021-08-08 18:53:55.473875	2021-08-08 18:53:59.122854	3.64298	200
2021-08-08 18:53:55.474256	2021-08-08 18:53:59.188602	3.707939	200
2021-08-08 18:53:55.481765	2021-08-08 18:53:59.227798	3.73994	200
2021-08-08 18:53:55.476905	2021-08-08 18:53:59.245256	3.760037	200
2021-08-08 18:53:55.479078	2021-08-08 18:54:00.194921	4.709714	200
2021-08-08 18:53:55.477774	2021-08-08 18:54:00.218061	4.732967	200
2021-08-08 18:54:00.219724	2021-08-08 18:54:01.985068	1.754521	200
2021-08-08 18:54:00.219461	2021-08-08 18:54:02.050847	1.822474	200
2021-08-08 18:54:00.220955	2021-08-08 18:54:02.052601	1.822628	200
2021-08-08 18:54:00.220448	2021-08-08 18:54:02.103531	1.875101	200
2021-08-08 18:54:00.227579	2021-08-08 18:54:03.912673	3.678324	200
2021-08-08 18:54:00.220212	2021-08-08 18:54:03.970383	3.739711	200
2021-08-08 18:54:00.226071	2021-08-08 18:54:03.978771	3.744853	200
2021-08-08 18:54:00.224163	2021-08-08 18:54:04.047063	3.814485	200
2021-08-08 18:54:00.223541	2021-08-08 18:54:04.984780	4.752144	200
2021-08-08 18:54:00.229325	2021-08-08 18:54:05.055078	4.818929	200
2021-08-08 18:54:05.058891	2021-08-08 18:54:06.825430	1.758114	200
2021-08-08 18:54:05.058316	2021-08-08 18:54:06.876013	1.811695	200
2021-08-08 18:54:05.057995	2021-08-08 18:54:06.876004	1.811717	200
2021-08-08 18:54:05.057721	2021-08-08 18:54:06.919855	1.854809	200
2021-08-08 18:54:05.062765	2021-08-08 18:54:08.538751	3.467728	200
2021-08-08 18:54:05.064849	2021-08-08 18:54:08.730853	3.659709	200
2021-08-08 18:54:05.060621	2021-08-08 18:54:08.781739	3.712836	200
2021-08-08 18:54:05.061027	2021-08-08 18:54:08.816135	3.747294	200
2021-08-08 18:54:05.062183	2021-08-08 18:54:09.788563	4.718958	200
2021-08-08 18:54:05.065851	2021-08-08 18:54:09.840329	4.767481	200
2021-08-08 18:54:09.848614	2021-08-08 18:54:11.724081	1.868213	200
2021-08-08 18:54:09.843293	2021-08-08 18:54:11.752441	1.901651	200
2021-08-08 18:54:09.847976	2021-08-08 18:54:11.753456	1.897687	200
2021-08-08 18:54:09.842849	2021-08-08 18:54:11.800370	1.950964	200
2021-08-08 18:54:09.846272	2021-08-08 18:54:13.618522	3.76315	200
2021-08-08 18:54:09.844155	2021-08-08 18:54:13.693965	3.840725	200
2021-08-08 18:54:09.845553	2021-08-08 18:54:13.733927	3.88078	200
2021-08-08 18:54:09.850652	2021-08-08 18:54:13.752780	3.895102	200
2021-08-08 18:54:09.851478	2021-08-08 18:54:14.766438	4.908471	200
2021-08-08 18:54:09.842642	2021-08-08 18:54:14.833547	4.984213	200
2021-08-08 18:54:14.834947	2021-08-08 18:54:16.588469	1.747232	200
2021-08-08 18:54:14.835260	2021-08-08 18:54:16.611633	1.771501	200
2021-08-08 18:54:14.835404	2021-08-08 18:54:16.663738	1.820471	200
2021-08-08 18:54:14.841824	2021-08-08 18:54:16.687640	1.837863	200
2021-08-08 18:54:14.837861	2021-08-08 18:54:18.486018	3.638598	200
2021-08-08 18:54:14.838161	2021-08-08 18:54:18.497917	3.650638	200
2021-08-08 18:54:14.835852	2021-08-08 18:54:18.511345	3.667166	200
2021-08-08 18:54:14.843304	2021-08-08 18:54:18.523686	3.673887	200
2021-08-08 18:54:14.839348	2021-08-08 18:54:19.487137	4.639744	200
2021-08-08 18:54:14.840639	2021-08-08 18:54:19.505651	4.656089	200
2021-08-08 18:54:19.508953	2021-08-08 18:54:21.325022	1.80637	200
2021-08-08 18:54:19.508091	2021-08-08 18:54:21.342124	1.825145	200
2021-08-08 18:54:19.507245	2021-08-08 18:54:21.369150	1.855162	200
2021-08-08 18:54:19.507463	2021-08-08 18:54:21.395255	1.880984	200
2021-08-08 18:54:19.510608	2021-08-08 18:54:22.980586	3.460327	200
2021-08-08 18:54:19.514744	2021-08-08 18:54:23.164229	3.64049	200
2021-08-08 18:54:19.516190	2021-08-08 18:54:23.188252	3.663975	200
2021-08-08 18:54:19.512181	2021-08-08 18:54:23.224270	3.703107	200
2021-08-08 18:54:19.510141	2021-08-08 18:54:24.146288	4.626182	200
2021-08-08 18:54:19.511486	2021-08-08 18:54:24.228911	4.708102	200
2021-08-08 18:54:24.230133	2021-08-08 18:54:25.976708	1.735796	200
2021-08-08 18:54:24.239832	2021-08-08 18:54:25.986952	1.739943	200
2021-08-08 18:54:24.235942	2021-08-08 18:54:26.041878	1.795055	200
2021-08-08 18:54:24.235080	2021-08-08 18:54:26.059540	1.814705	200
2021-08-08 18:54:24.231298	2021-08-08 18:54:27.746736	3.507215	200
2021-08-08 18:54:24.230132	2021-08-08 18:54:27.773367	3.534036	200
2021-08-08 18:54:24.238185	2021-08-08 18:54:27.776849	3.531767	200
2021-08-08 18:54:24.237598	2021-08-08 18:54:27.789072	3.543263	200
2021-08-08 18:54:24.230401	2021-08-08 18:54:28.797814	4.557057	200
2021-08-08 18:54:24.232839	2021-08-08 18:54:28.843416	4.60173	200
2021-08-08 18:54:28.844818	2021-08-08 18:54:30.590885	1.73618	200
2021-08-08 18:54:28.847963	2021-08-08 18:54:30.595024	1.738592	200
2021-08-08 18:54:28.846038	2021-08-08 18:54:30.681970	1.826327	200
2021-08-08 18:54:28.845160	2021-08-08 18:54:30.684305	1.827565	200
2021-08-08 18:54:28.845553	2021-08-08 18:54:32.369072	3.514342	200
2021-08-08 18:54:28.851068	2021-08-08 18:54:32.387077	3.521589	200
2021-08-08 18:54:28.854721	2021-08-08 18:54:32.478193	3.616523	200
2021-08-08 18:54:28.848687	2021-08-08 18:54:32.498015	3.638804	200
2021-08-08 18:54:28.852263	2021-08-08 18:54:33.481797	4.620519	200
2021-08-08 18:54:28.853539	2021-08-08 18:54:33.500569	4.639383	200
2021-08-08 18:54:33.502414	2021-08-08 18:54:35.302025	1.790167	200
2021-08-08 18:54:33.510895	2021-08-08 18:54:35.319424	1.801496	200
2021-08-08 18:54:33.502939	2021-08-08 18:54:35.378974	1.869138	200
2021-08-08 18:54:33.504915	2021-08-08 18:54:35.390942	1.8788	200
2021-08-08 18:54:33.508662	2021-08-08 18:54:37.030100	3.507994	200
2021-08-08 18:54:33.507382	2021-08-08 18:54:37.085245	3.569031	200
2021-08-08 18:54:33.503494	2021-08-08 18:54:37.121112	3.608788	200
2021-08-08 18:54:33.506317	2021-08-08 18:54:37.155935	3.639703	200
2021-08-08 18:54:33.512697	2021-08-08 18:54:38.103850	4.582151	200
2021-08-08 18:54:33.513958	2021-08-08 18:54:38.123930	4.602443	200
2021-08-08 18:54:38.129789	2021-08-08 18:54:39.923532	1.786249	200
2021-08-08 18:54:38.127958	2021-08-08 18:54:39.940656	1.803403	200
2021-08-08 18:54:38.125364	2021-08-08 18:54:39.967740	1.83546	200
2021-08-08 18:54:38.125279	2021-08-08 18:54:40.013166	1.881389	200
2021-08-08 18:54:38.130567	2021-08-08 18:54:41.695885	3.557184	200
2021-08-08 18:54:38.133700	2021-08-08 18:54:41.703886	3.563189	200
2021-08-08 18:54:38.125855	2021-08-08 18:54:41.749938	3.617138	200
2021-08-08 18:54:38.126232	2021-08-08 18:54:41.805617	3.671219	200
2021-08-08 18:54:38.133008	2021-08-08 18:54:42.768389	4.627605	200
2021-08-08 18:54:38.128600	2021-08-08 18:54:42.800802	4.664033	200
2021-08-08 18:54:42.802564	2021-08-08 18:54:45.083653	2.274468	200
2021-08-08 18:54:42.802072	2021-08-08 18:54:45.098857	2.289266	200
2021-08-08 18:54:42.802242	2021-08-08 18:54:45.147693	2.338404	200
2021-08-08 18:54:42.804825	2021-08-08 18:54:45.256775	2.443108	200
2021-08-08 18:54:42.806086	2021-08-08 18:54:47.218565	4.40356	200
2021-08-08 18:54:42.805228	2021-08-08 18:54:47.319673	4.506378	200
2021-08-08 18:54:42.802353	2021-08-08 18:54:47.319688	4.507886	200
2021-08-08 18:54:42.810060	2021-08-08 18:54:47.398539	4.580563	200
2021-08-08 18:54:42.807841	2021-08-08 18:54:48.446527	5.628598	200
2021-08-08 18:54:42.811061	2021-08-08 18:54:48.527921	5.709124	200
2021-08-08 18:54:48.529602	2021-08-08 18:54:50.556437	2.017769	200
2021-08-08 18:54:48.531939	2021-08-08 18:54:50.565647	2.023006	200
2021-08-08 18:54:48.530557	2021-08-08 18:54:50.568970	2.029822	200
2021-08-08 18:54:48.529880	2021-08-08 18:54:50.573381	2.036312	200
2021-08-08 18:54:48.532628	2021-08-08 18:54:52.481710	3.939602	200
2021-08-08 18:54:48.536247	2021-08-08 18:54:52.546916	4.001876	200
2021-08-08 18:54:48.533740	2021-08-08 18:54:52.565032	4.021864	200
2021-08-08 18:54:48.535577	2021-08-08 18:54:52.580677	4.035715	200
2021-08-08 18:54:48.538338	2021-08-08 18:54:53.643750	5.095983	200
2021-08-08 18:54:48.539868	2021-08-08 18:54:53.675908	5.128153	200
2021-08-08 18:54:53.678941	2021-08-08 18:54:55.364961	1.678198	200
2021-08-08 18:54:53.677861	2021-08-08 18:54:55.484093	1.798668	200
2021-08-08 18:54:53.679215	2021-08-08 18:54:55.535454	1.847587	200
2021-08-08 18:54:53.677604	2021-08-08 18:54:55.546042	1.859548	200
2021-08-08 18:54:53.681585	2021-08-08 18:54:57.130892	3.439859	200
2021-08-08 18:54:53.682639	2021-08-08 18:54:57.275796	3.585869	200
2021-08-08 18:54:53.680726	2021-08-08 18:54:57.293897	3.604644	200
2021-08-08 18:54:53.683540	2021-08-08 18:54:57.368768	3.677385	200
2021-08-08 18:54:53.685868	2021-08-08 18:54:58.223340	4.530273	200
2021-08-08 18:54:53.687373	2021-08-08 18:54:58.322034	4.6289	200
2021-08-08 18:54:58.327938	2021-08-08 18:55:00.144922	1.808302	200
2021-08-08 18:54:58.323990	2021-08-08 18:55:00.208904	1.877201	200
2021-08-08 18:54:58.323589	2021-08-08 18:55:00.211022	1.880743	200
2021-08-08 18:54:58.329726	2021-08-08 18:55:00.243524	1.905478	200
2021-08-08 18:54:58.324105	2021-08-08 18:55:01.852060	3.518575	200
2021-08-08 18:54:58.326005	2021-08-08 18:55:01.945788	3.610962	200
2021-08-08 18:54:58.328253	2021-08-08 18:55:01.991698	3.655311	200
2021-08-08 18:54:58.325602	2021-08-08 18:55:01.995503	3.661103	200
2021-08-08 18:54:58.332254	2021-08-08 18:55:02.913846	4.575474	200
2021-08-08 18:54:58.326464	2021-08-08 18:55:02.974841	4.638815	200
2021-08-08 18:55:02.976096	2021-08-08 18:55:04.793906	1.810491	200
2021-08-08 18:55:02.977112	2021-08-08 18:55:04.813250	1.826348	200
2021-08-08 18:55:02.976055	2021-08-08 18:55:04.843069	1.858817	200
2021-08-08 18:55:02.976150	2021-08-08 18:55:04.887202	1.903359	200
2021-08-08 18:55:02.978531	2021-08-08 18:55:06.665370	3.677815	200
2021-08-08 18:55:02.982811	2021-08-08 18:55:06.698011	3.707121	200
2021-08-08 18:55:02.981987	2021-08-08 18:55:06.748039	3.757722	200
2021-08-08 18:55:02.978878	2021-08-08 18:55:06.751266	3.761758	200
2021-08-08 18:55:02.985957	2021-08-08 18:55:08.097159	5.104081	200
2021-08-08 18:55:02.980157	2021-08-08 18:55:08.122818	5.132313	200
2021-08-08 18:55:08.124696	2021-08-08 18:55:09.958591	1.826227	200
2021-08-08 18:55:08.125098	2021-08-08 18:55:10.011495	1.876597	200
2021-08-08 18:55:08.124406	2021-08-08 18:55:10.040346	1.887738	200
2021-08-08 18:55:08.124005	2021-08-08 18:55:10.064572	1.932644	200
2021-08-08 18:55:08.128641	2021-08-08 18:55:11.799769	3.663047	200
2021-08-08 18:55:08.128918	2021-08-08 18:55:11.877301	3.739384	200
2021-08-08 18:55:08.127546	2021-08-08 18:55:11.917319	3.780558	200
2021-08-08 18:55:08.126938	2021-08-08 18:55:11.951738	3.8163	200
2021-08-08 18:55:08.130739	2021-08-08 18:55:12.963241	4.823924	200
2021-08-08 18:55:08.132477	2021-08-08 18:55:13.010008	4.869645	200
2021-08-08 18:55:13.016127	2021-08-08 18:55:14.874082	1.840926	200
2021-08-08 18:55:13.011588	2021-08-08 18:55:14.892650	1.869456	200
2021-08-08 18:55:13.023724	2021-08-08 18:55:14.917102	1.88055	200
2021-08-08 18:55:13.013697	2021-08-08 18:55:14.950652	1.919796	200
2021-08-08 18:55:13.011234	2021-08-08 18:55:16.677077	3.657245	200
2021-08-08 18:55:13.017542	2021-08-08 18:55:16.701218	3.668409	200
2021-08-08 18:55:13.011147	2021-08-08 18:55:16.750768	3.729247	200
2021-08-08 18:55:13.015159	2021-08-08 18:55:16.786516	3.755577	200
2021-08-08 18:55:13.018120	2021-08-08 18:55:17.789162	4.755976	200
2021-08-08 18:55:13.011548	2021-08-08 18:55:17.822159	4.793015	200
2021-08-08 18:55:17.824174	2021-08-08 18:55:19.655276	1.824907	200
2021-08-08 18:55:17.826897	2021-08-08 18:55:19.702906	1.867469	200
2021-08-08 18:55:17.828847	2021-08-08 18:55:19.754892	1.919177	200
2021-08-08 18:55:17.832031	2021-08-08 18:55:19.776890	1.93806	200
2021-08-08 18:55:17.827263	2021-08-08 18:55:21.421599	3.586031	200
2021-08-08 18:55:17.828415	2021-08-08 18:55:21.498689	3.663059	200
2021-08-08 18:55:17.824988	2021-08-08 18:55:21.536141	3.702567	200
2021-08-08 18:55:17.831184	2021-08-08 18:55:21.600227	3.761922	200
2021-08-08 18:55:17.824301	2021-08-08 18:55:22.603131	4.772397	200
2021-08-08 18:55:17.824820	2021-08-08 18:55:22.647617	4.816341	200
2021-08-08 18:55:22.649992	2021-08-08 18:55:24.487590	1.827976	200
2021-08-08 18:55:22.649364	2021-08-08 18:55:24.532204	1.874263	200
2021-08-08 18:55:22.648953	2021-08-08 18:55:24.575401	1.915444	200
2021-08-08 18:55:22.648888	2021-08-08 18:55:24.594268	1.936027	200
2021-08-08 18:55:22.654321	2021-08-08 18:55:26.334235	3.671443	200
2021-08-08 18:55:22.657409	2021-08-08 18:55:26.335334	3.670927	200
2021-08-08 18:55:22.651380	2021-08-08 18:55:26.346800	3.68571	200
2021-08-08 18:55:22.652185	2021-08-08 18:55:26.413130	3.75098	200
2021-08-08 18:55:22.653251	2021-08-08 18:55:27.424600	4.761787	200
2021-08-08 18:55:22.655756	2021-08-08 18:55:27.474317	4.810122	200
2021-08-08 18:55:27.482332	2021-08-08 18:55:29.312979	1.825086	200
2021-08-08 18:55:27.476145	2021-08-08 18:55:29.317731	1.832524	200
2021-08-08 18:55:27.476293	2021-08-08 18:55:29.366484	1.883531	200
2021-08-08 18:55:27.478710	2021-08-08 18:55:29.384481	1.893302	200
2021-08-08 18:55:27.476381	2021-08-08 18:55:31.139315	3.655391	200
2021-08-08 18:55:27.481250	2021-08-08 18:55:31.156852	3.668108	200
2021-08-08 18:55:27.479781	2021-08-08 18:55:31.205133	3.71791	200
2021-08-08 18:55:27.476098	2021-08-08 18:55:31.221215	3.735866	200
2021-08-08 18:55:27.476278	2021-08-08 18:55:32.166411	4.681904	200
2021-08-08 18:55:27.477176	2021-08-08 18:55:32.205338	4.720395	200
2021-08-08 18:55:32.207358	2021-08-08 18:55:34.024054	1.808803	200
2021-08-08 18:55:32.207790	2021-08-08 18:55:34.045029	1.82905	200
2021-08-08 18:55:32.206894	2021-08-08 18:55:34.117125	1.899054	200
2021-08-08 18:55:32.206605	2021-08-08 18:55:34.150081	1.935481	200
2021-08-08 18:55:32.206501	2021-08-08 18:55:35.783315	3.567246	200
2021-08-08 18:55:32.214070	2021-08-08 18:55:35.824071	3.603615	200
2021-08-08 18:55:32.210165	2021-08-08 18:55:35.851756	3.632167	200
2021-08-08 18:55:32.210906	2021-08-08 18:55:35.872495	3.652858	200
2021-08-08 18:55:32.212622	2021-08-08 18:55:36.844953	4.62486	200
2021-08-08 18:55:32.216830	2021-08-08 18:55:36.883227	4.660421	200
2021-08-08 18:55:36.885435	2021-08-08 18:55:38.638223	1.745187	200
2021-08-08 18:55:36.890388	2021-08-08 18:55:38.669569	1.77052	200
2021-08-08 18:55:36.884515	2021-08-08 18:55:38.690107	1.796329	200
2021-08-08 18:55:36.884613	2021-08-08 18:55:38.727142	1.837545	200
2021-08-08 18:55:36.884579	2021-08-08 18:55:40.429558	3.537404	200
2021-08-08 18:55:36.889399	2021-08-08 18:55:40.455906	3.559423	200
2021-08-08 18:55:36.888423	2021-08-08 18:55:40.478319	3.582793	200
2021-08-08 18:55:36.884742	2021-08-08 18:55:40.572160	3.681591	200
2021-08-08 18:55:36.887133	2021-08-08 18:55:41.521731	4.627154	200
2021-08-08 18:55:36.886950	2021-08-08 18:55:41.555385	4.660897	200
2021-08-08 18:55:41.556766	2021-08-08 18:55:43.325053	1.761817	200
2021-08-08 18:55:41.559729	2021-08-08 18:55:43.418642	1.850956	200
2021-08-08 18:55:41.557745	2021-08-08 18:55:43.422178	1.854886	200
2021-08-08 18:55:41.556962	2021-08-08 18:55:43.447055	1.881915	200
2021-08-08 18:55:41.566736	2021-08-08 18:55:45.183502	3.610635	200
2021-08-08 18:55:41.556727	2021-08-08 18:55:45.212001	3.647046	200
2021-08-08 18:55:41.562635	2021-08-08 18:55:45.254038	3.683252	200
2021-08-08 18:55:41.565417	2021-08-08 18:55:45.283093	3.711112	200
2021-08-08 18:55:41.559449	2021-08-08 18:55:46.263572	4.69441	200
2021-08-08 18:55:41.561824	2021-08-08 18:55:46.276257	4.704653	200
2021-08-08 18:55:46.279945	2021-08-08 18:55:48.093478	1.806212	200
2021-08-08 18:55:46.283271	2021-08-08 18:55:48.114135	1.824825	200
2021-08-08 18:55:46.279906	2021-08-08 18:55:48.138809	1.849441	200
2021-08-08 18:55:46.282644	2021-08-08 18:55:48.178174	1.888929	200
2021-08-08 18:55:46.277522	2021-08-08 18:55:49.864918	3.58093	200
2021-08-08 18:55:46.277466	2021-08-08 18:55:49.921786	3.637979	200
2021-08-08 18:55:46.277696	2021-08-08 18:55:49.971691	3.683073	200
2021-08-08 18:55:46.277645	2021-08-08 18:55:49.972924	3.686625	200
2021-08-08 18:55:46.280243	2021-08-08 18:55:50.956162	4.668468	200
2021-08-08 18:55:46.280003	2021-08-08 18:55:50.977585	4.68967	200
2021-08-08 18:55:50.979057	2021-08-08 18:55:52.726642	1.740486	200
2021-08-08 18:55:50.979203	2021-08-08 18:55:52.728204	1.741801	200
2021-08-08 18:55:50.978981	2021-08-08 18:55:52.746557	1.760173	200
2021-08-08 18:55:50.979162	2021-08-08 18:55:52.775571	1.787507	200
2021-08-08 18:55:50.982112	2021-08-08 18:55:54.603987	3.611866	200
2021-08-08 18:55:50.985126	2021-08-08 18:55:54.675966	3.683219	200
2021-08-08 18:55:50.981305	2021-08-08 18:55:54.693213	3.703139	200
2021-08-08 18:55:50.981403	2021-08-08 18:55:54.715136	3.724608	200
2021-08-08 18:55:50.983966	2021-08-08 18:55:56.230268	5.237822	200
2021-08-08 18:55:50.987275	2021-08-08 18:55:56.274210	5.279905	200
2021-08-08 18:55:56.283241	2021-08-08 18:55:59.346973	3.05391	200
2021-08-08 18:55:56.281825	2021-08-08 18:55:59.362063	3.0715	200
2021-08-08 18:55:56.277072	2021-08-08 18:55:59.362057	3.077642	200
2021-08-08 18:55:56.278048	2021-08-08 18:55:59.517488	3.232683	200
2021-08-08 18:55:56.285634	2021-08-08 18:56:02.214318	5.9178	200
2021-08-08 18:55:56.279927	2021-08-08 18:56:02.227464	5.936685	200
2021-08-08 18:55:56.286093	2021-08-08 18:56:02.249273	5.953233	200
2021-08-08 18:55:56.281154	2021-08-08 18:56:02.284392	5.992915	200
2021-08-08 18:55:56.288463	2021-08-08 18:56:04.127674	7.827509	200
2021-08-08 18:55:56.290956	2021-08-08 18:56:04.220657	7.920323	200
